<svg xmlns="http://www.w3.org/2000/svg" width="100" height="150">
<path style="fill:black;" d="
M0,100 L40,0 60,0 20,100 0,100 
M100,100 L66,15 56,40 80,100 100,100 
M36,84 L64,84 56,64 44,64 36,84 Z
"/>
</svg>
