<svg xmlns="http://www.w3.org/2000/svg" width="100" height="150">
<path style="fill:black;" d="

M 50,40 L 60,40 A 20,20 0 0 1 80,60
  L 50,60 50,40

M 50,100 L 60,100 A 20,20 0 0 0 80,80
  L50,80 50,100

M40,100 
  A 30,30 0 0 1 40,40 
  L40,60 
  A 10,10 0 0 0 40,80
  L40,100 Z
"/>
</svg>
