<svg xmlns="http://www.w3.org/2000/svg" width="100" height="150">
<path style="fill:black;" d="
M80,100 L100,100 100,0 80,10 80,100 
M70,100 L40,100 
  A 30,30 0 0 1 40,40 
  L70,40 70,60 40,60 
  A 10,10 0 0 0 40,80
  L70,80, 70,100 Z
"/>
</svg>
