<svg xmlns="http://www.w3.org/2000/svg" width="100" height="150">
<path style="fill:black;" d="
M0,100 L20,100 20,0 0,0 0,100 

M 30,0 L 90,0 90,20, 30,20 30,0

M 30,100 L 90,100 90,80, 30,80 30,100

M 30,40 L 80,40 80,60, 30,60 30,40 Z
"/>
</svg>
