<svg xmlns="http://www.w3.org/2000/svg" width="100" height="150">
<path style="fill:black;" d="
M100,100 100,40 80,40 80,120
 A 10,10 0 0 1 70,130
 L 60,130 70,150
 A 30,30 0 0 0 100,120
 L 100,100Z

M80,20 A10,10 0 0 1 100,20 
  A10,10 0 0 1 80,20 Z
"/>
</svg>
