<svg xmlns="http://www.w3.org/2000/svg" width="100" height="150">
<path style="fill:black;" d="
M0,100 L20,100 20,0 0,0 0,100 
M30,55 L55,30 69,44 30,82 30,55
M58,68 L76,86 62,100 44,82 58,68Z 
"/>
</svg>
