<svg xmlns="http://www.w3.org/2000/svg" width="100" height="150">
<path style="fill:black;" d="


M50,100 
  A 30,30 0 0 0 50,40 
  L50,60 
  A 10,10 0 0 1 50,80
  L50,100 Z

M40,100 
  A 30,30 0 0 1 40,40 
  L40,60 
  A 10,10 0 0 0 40,80
  L40,100 Z
"/>
</svg>
